{"products":{"current_page":2,"data":[{"id":15,"name":"\u041f\u043b\u0438\u0442\u043a\u0430 \u0448\u043e\u043b\u043e\u043b\u0430\u0434\u0443","amount":"100 \u0433","price":"9.00","image":"products\/ChX0M4i83lhmvIlCj9NLkJF6UADhSfij0hAMa1SH.png","type_id":2,"type_name":"\u0407\u0436\u0430","category_id":7,"category_name":"\u0414\u0435\u0441\u0435\u0440\u0442\u0438","sequence_number":null,"description":null,"links":{"self":{"rel":"self","href":"\/api\/v2\/ua\/products\/15"}}},{"id":4,"name":"\u0415\u0441\u043f\u0440\u0435\u0441\u043e","amount":"40","price":"8.00","image":"products\/H5pXeKJCArV5zrBpSeE7OBsfTt5uNO3W9Fh9fxay.jpeg","type_id":1,"type_name":"\u041d\u0430\u043f\u043e\u0457","category_id":1,"category_name":"\u041a\u0430\u0432\u0430","sequence_number":1,"description":null,"links":{"self":{"rel":"self","href":"\/api\/v2\/ua\/products\/4"}}},{"id":5,"name":"\u0415\u0441\u043f\u0440\u0435\u0441\u043e \u0432\u0435\u043b\u0438\u043a\u0435","amount":"80","price":"15.00","image":"products\/lOmqPPx6YD8AmO1Kqw4Ojl6pDBBiY8YLv0BjB6Lm.jpeg","type_id":1,"type_name":"\u041d\u0430\u043f\u043e\u0457","category_id":1,"category_name":"\u041a\u0430\u0432\u0430","sequence_number":2,"description":null,"links":{"self":{"rel":"self","href":"\/api\/v2\/ua\/products\/5"}}},{"id":1,"name":"\u0410\u043c\u0435\u0440\u0438\u043a\u0430\u043d\u043e","amount":"100","price":"9.00","image":"products\/ytQd7b6KMXBQAENTn9zuuozaTrKYwTt76SIxNYBJ.gif","type_id":1,"type_name":"\u041d\u0430\u043f\u043e\u0457","category_id":1,"category_name":"\u041a\u0430\u0432\u0430","sequence_number":3,"description":null,"links":{"self":{"rel":"self","href":"\/api\/v2\/ua\/products\/1"}}},{"id":2,"name":"\u0410\u043c\u0435\u0440\u0438\u043a\u0430\u043d\u043e \u0432\u0435\u043b\u0438\u043a\u0435","amount":"200","price":"16.00","image":"products\/FWTzQDeWVXBwfmyArjXn79svQr33Wq0O4Lo7IAwv.jpeg","type_id":1,"type_name":"\u041d\u0430\u043f\u043e\u0457","category_id":1,"category_name":"\u041a\u0430\u0432\u0430","sequence_number":4,"description":"","links":{"self":{"rel":"self","href":"\/api\/v2\/ua\/products\/2"}}},{"id":3,"name":"\u041a\u0430\u043f\u0443\u0447\u0456\u043d\u043e","amount":"200","price":"13.00","image":"products\/DJpDtwYkzBkYdjRXlB4JPxx6MqIVMQujyaOUPSlb.jpeg","type_id":1,"type_name":"\u041d\u0430\u043f\u043e\u0457","category_id":1,"category_name":"\u041a\u0430\u0432\u0430","sequence_number":5,"description":null,"links":{"self":{"rel":"self","href":"\/api\/v2\/ua\/products\/3"}}},{"id":6,"name":"\u041b\u0430\u0442\u0435","amount":"300","price":"17.00","image":"products\/099cyuJJ7z0jybKUzDjMqhf2zUDOCNBzVCCDEcTM.jpeg","type_id":1,"type_name":"\u041d\u0430\u043f\u043e\u0457","category_id":1,"category_name":"\u041a\u0430\u0432\u0430","sequence_number":6,"description":null,"links":{"self":{"rel":"self","href":"\/api\/v2\/ua\/products\/6"}}},{"id":20,"name":"\u041c\u043e\u043a\u0430\u0447\u0456\u043d\u043e","amount":"200","price":"16.00","image":"products\/fIK8ihqhQVcsNMeUq0XLt0Em9YPw3sJZOIGhDHL6.jpeg","type_id":1,"type_name":"\u041d\u0430\u043f\u043e\u0457","category_id":1,"category_name":"\u041a\u0430\u0432\u0430","sequence_number":7,"description":null,"links":{"self":{"rel":"self","href":"\/api\/v2\/ua\/products\/20"}}},{"id":21,"name":"\u041c\u043e\u043a\u0430\u0447\u0456\u043d\u043e \u0432\u0435\u043b\u0438\u043a\u0435","amount":"300","price":"19.00","image":"products\/MNUQEXyE3aIv97kknJMbqDwZIPVQNnTT1aqjfpWK.jpeg","type_id":1,"type_name":"\u041d\u0430\u043f\u043e\u0457","category_id":1,"category_name":"\u041a\u0430\u0432\u0430","sequence_number":8,"description":null,"links":{"self":{"rel":"self","href":"\/api\/v2\/ua\/products\/21"}}},{"id":13,"name":"\u041a\u0430\u043a\u0430\u043e","amount":"300","price":"15.00","image":"products\/MQi3NaxvPKpZExc1OVUUkTj7UObkFitcYkWLO5xI.jpeg","type_id":1,"type_name":"\u041d\u0430\u043f\u043e\u0457","category_id":3,"category_name":"\u0428\u043e\u043a\u043e\u043b\u0430\u0434","sequence_number":9,"description":null,"links":{"self":{"rel":"self","href":"\/api\/v2\/ua\/products\/13"}}}],"from":11,"last_page":3,"next_page_url":"http:\/\/127.0.0.1:8000\/api\/v2\/ua\/products?page=3","path":"http:\/\/127.0.0.1:8000\/api\/v2\/ua\/products","per_page":10,"prev_page_url":"http:\/\/127.0.0.1:8000\/api\/v2\/ua\/products?page=1","to":20,"total":23},"links":{"self":{"rel":"self","href":"\/api\/v2\/ua\/products"},"filters":{"type":[{"name":"\u041f\u0440\u043e\u0434\u0443\u043a\u0442\u0438 \u0442\u0438\u043f\u0443 \u041d\u0430\u043f\u043e\u0457","rel":"Products type = \u041d\u0430\u043f\u043e\u0457","href":"\/api\/v2\/ua\/products?type_id=1"},{"name":"\u041f\u0440\u043e\u0434\u0443\u043a\u0442\u0438 \u0442\u0438\u043f\u0443 \u0407\u0436\u0430","rel":"Products type = \u0407\u0436\u0430","href":"\/api\/v2\/ua\/products?type_id=2"}],"category":[{"name":"\u041f\u0440\u043e\u0434\u0443\u043a\u0442\u0438 \u043a\u0430\u0442\u0435\u0433\u043e\u0440\u0456\u0457 \u041a\u0430\u0432\u0430","rel":"Products category = \u041a\u0430\u0432\u0430","href":"\/api\/v2\/ua\/products?category_id=1"},{"name":"\u041f\u0440\u043e\u0434\u0443\u043a\u0442\u0438 \u043a\u0430\u0442\u0435\u0433\u043e\u0440\u0456\u0457 \u0427\u0430\u0439","rel":"Products category = \u0427\u0430\u0439","href":"\/api\/v2\/ua\/products?category_id=2"},{"name":"\u041f\u0440\u043e\u0434\u0443\u043a\u0442\u0438 \u043a\u0430\u0442\u0435\u0433\u043e\u0440\u0456\u0457 \u0428\u043e\u043a\u043e\u043b\u0430\u0434","rel":"Products category = \u0428\u043e\u043a\u043e\u043b\u0430\u0434","href":"\/api\/v2\/ua\/products?category_id=3"},{"name":"\u041f\u0440\u043e\u0434\u0443\u043a\u0442\u0438 \u043a\u0430\u0442\u0435\u0433\u043e\u0440\u0456\u0457 \u0414\u043e \u043a\u0430\u0432\u0438","rel":"Products category = \u0414\u043e \u043a\u0430\u0432\u0438","href":"\/api\/v2\/ua\/products?category_id=4"},{"name":"\u041f\u0440\u043e\u0434\u0443\u043a\u0442\u0438 \u043a\u0430\u0442\u0435\u0433\u043e\u0440\u0456\u0457 \u0425\u043b\u0456\u0431","rel":"Products category = \u0425\u043b\u0456\u0431","href":"\/api\/v2\/ua\/products?category_id=6"},{"name":"\u041f\u0440\u043e\u0434\u0443\u043a\u0442\u0438 \u043a\u0430\u0442\u0435\u0433\u043e\u0440\u0456\u0457 \u0414\u0435\u0441\u0435\u0440\u0442\u0438","rel":"Products category = \u0414\u0435\u0441\u0435\u0440\u0442\u0438","href":"\/api\/v2\/ua\/products?category_id=7"}]},"searchByProductName":{"rel":"searchByName","href":"\/api\/v2\/ua\/products?q=%25s"}}}