{
  "products": {
    "current_page": 1,
    "data": [
      {
        "id": 7,
        "name": "Маккіато",
        "amount": "300",
        "price": "10.00",
        "image": "products/ayXGVWkoU3nDM8TaZTCjcmcHArrjCzn0TKn4NMZM.jpeg",
        "type_id": 1,
        "type_name": "Напої",
        "category_id": 1,
        "category_name": "Кава",
        "sequence_number": null,
        "description": null,
        "links": [
          {
            "rel": "self",
            "href": "http://127.0.0.1:8000/api/v2/ua/products/7"
          }
        ]
      },
      {
        "id": 22,
        "name": "Карамелачіно",
        "amount": "200",
        "price": "13.00",
        "image": "products/CzLJc9cNmRPCxuP7qB7qlYdCNeJR8yzQabOAH5wj.jpeg",
        "type_id": 1,
        "type_name": "Напої",
        "category_id": 1,
        "category_name": "Кава",
        "sequence_number": null,
        "description": null,
        "links": [
          {
            "rel": "self",
            "href": "http://127.0.0.1:8000/api/v2/ua/products/22"
          }
        ]
      },
      {
        "id": 23,
        "name": "Карамелачіно велике",
        "amount": "300",
        "price": "18.00",
        "image": "products/gUf0s8AVfJvU9GZOws0P7Oxo1PEcXOpyZkMAZYTW.jpeg",
        "type_id": 1,
        "type_name": "Напої",
        "category_id": 1,
        "category_name": "Кава",
        "sequence_number": null,
        "description": null,
        "links": [
          {
            "rel": "self",
            "href": "http://127.0.0.1:8000/api/v2/ua/products/23"
          }
        ]
      },
      {
        "id": 11,
        "name": "Гарячий шоколад",
        "amount": "150",
        "price": "12.00",
        "image": "products/pmGiwHZzdTRWNewG9ktCeffenl0q7BPhV3BXLiid.jpeg",
        "type_id": 1,
        "type_name": "Напої",
        "category_id": 3,
        "category_name": "Шоколад",
        "sequence_number": null,
        "description": null,
        "links": [
          {
            "rel": "self",
            "href": "http://127.0.0.1:8000/api/v2/ua/products/11"
          }
        ]
      },
      {
        "id": 12,
        "name": "Шоколад з молоком",
        "amount": "300",
        "price": "12.00",
        "image": "products/ClbfgRBel5MlDTmD09V52UVvf4X1NPedLe7fdK78.jpeg",
        "type_id": 1,
        "type_name": "Напої",
        "category_id": 3,
        "category_name": "Шоколад",
        "sequence_number": null,
        "description": null,
        "links": [
          {
            "rel": "self",
            "href": "http://127.0.0.1:8000/api/v2/ua/products/12"
          }
        ]
      },
      {
        "id": 16,
        "name": "Мед",
        "amount": "шт.",
        "price": "3.00",
        "image": "products/1V15joq06WE2FxX1KpJvw0mDRnuwLbLjHRpaAdVw.jpeg",
        "type_id": 1,
        "type_name": "Напої",
        "category_id": 4,
        "category_name": "До кави",
        "sequence_number": null,
        "description": null,
        "links": [
          {
            "rel": "self",
            "href": "http://127.0.0.1:8000/api/v2/ua/products/16"
          }
        ]
      },
      {
        "id": 17,
        "name": "Цукор",
        "amount": "шт.",
        "price": "1.00",
        "image": "products/mv0MZb4s1gjBGWwvsiTeRkqvYlPDPSryofuSZtfl.png",
        "type_id": 1,
        "type_name": "Напої",
        "category_id": 4,
        "category_name": "До кави",
        "sequence_number": null,
        "description": null,
        "links": [
          {
            "rel": "self",
            "href": "http://127.0.0.1:8000/api/v2/ua/products/17"
          }
        ]
      },
      {
        "id": 18,
        "name": "Замінник цукру",
        "amount": "шт.",
        "price": "2.00",
        "image": "products/BllkdlnN8kk81PaIsk5G7IvgGJnpmxvgLAZNLDRd.jpeg",
        "type_id": 1,
        "type_name": "Напої",
        "category_id": 4,
        "category_name": "До кави",
        "sequence_number": null,
        "description": null,
        "links": [
          {
            "rel": "self",
            "href": "http://127.0.0.1:8000/api/v2/ua/products/18"
          }
        ]
      },
      {
        "id": 19,
        "name": "Підставка під стаканчик для авто",
        "amount": "шт.",
        "price": "10.00",
        "image": "products/XCLduxH7I70zZDer5ZFpTPNrvaCX2HY0XMvSWauZ.jpeg",
        "type_id": 1,
        "type_name": "Напої",
        "category_id": 4,
        "category_name": "До кави",
        "sequence_number": null,
        "description": null,
        "links": [
          {
            "rel": "self",
            "href": "http://127.0.0.1:8000/api/v2/ua/products/19"
          }
        ]
      },
      {
        "id": 14,
        "name": "Булочка",
        "amount": "шт.",
        "price": "5.00",
        "image": "products/uTfZMv1GBfD1A0TdRtLzRktbnP8KvFu3GQOr4G9e.png",
        "type_id": 2,
        "type_name": "Їжа",
        "category_id": 6,
        "category_name": "Хліб",
        "sequence_number": null,
        "description": null,
        "links": [
          {
            "rel": "self",
            "href": "http://127.0.0.1:8000/api/v2/ua/products/14"
          }
        ]
      }
    ],
    "from": 1,
    "last_page": 3,
    "next_page_url": "http://127.0.0.1:8000/api/v2/ua/products?page=2",
    "path": "http://127.0.0.1:8000/api/v2/ua/products",
    "per_page": 10,
    "prev_page_url": null,
    "to": 10,
    "total": 23
  },
  "links": {
    "self": {
      "rel": "self",
      "href": "http://127.0.0.1:8000/api/v2/ua/products"
    },
    "filters": {
      "type": [
        {
          "name": "Продукти типу Напої",
          "rel": "Products type = Напої",
          "href": "http://127.0.0.1:8000/api/v2/ua/products?type_id=1"
        },
        {
          "name": "Продукти типу Їжа",
          "rel": "Products type = Їжа",
          "href": "http://127.0.0.1:8000/api/v2/ua/products?type_id=2"
        }
      ],
      "category": [
        {
          "name": "Продукти категорії Кава",
          "rel": "Products category = Кава",
          "href": "http://127.0.0.1:8000/api/v2/ua/products?category_id=1"
        },
        {
          "name": "Продукти категорії Чай",
          "rel": "Products category = Чай",
          "href": "http://127.0.0.1:8000/api/v2/ua/products?category_id=2"
        },
        {
          "name": "Продукти категорії Шоколад",
          "rel": "Products category = Шоколад",
          "href": "http://127.0.0.1:8000/api/v2/ua/products?category_id=3"
        },
        {
          "name": "Продукти категорії До кави",
          "rel": "Products category = До кави",
          "href": "http://127.0.0.1:8000/api/v2/ua/products?category_id=4"
        },
        {
          "name": "Продукти категорії Хліб",
          "rel": "Products category = Хліб",
          "href": "http://127.0.0.1:8000/api/v2/ua/products?category_id=6"
        },
        {
          "name": "Продукти категорії Десерти",
          "rel": "Products category = Десерти",
          "href": "http://127.0.0.1:8000/api/v2/ua/products?category_id=7"
        }
      ]
    },
    "searchByProductName": {
      "rel": "searchByName",
      "href": "http://127.0.0.1:8000/api/v2/ua/products?q=%25s"
    }
  }
}